<?xml version="1.0" encoding="UTF-8"?>
<svg width="235px" height="90px" viewBox="0 0 235 90" version="1.1" xmlns="http://www.w3.org/2000/svg" xmlns:xlink="http://www.w3.org/1999/xlink">
    <!-- Generator: Sketch 51.2 (57519) - http://www.bohemiancoding.com/sketch -->
    <title>Group 17118</title>
    <desc>Created with Sketch.</desc>
    <defs></defs>
    <g id="Page-1" stroke="none" stroke-width="1" fill="none" fill-rule="evenodd">
        <g id="Artboard-49" transform="translate(-294.000000, -371.000000)">
            <g id="Group-17118" transform="translate(294.000000, 371.276000)">
                <path d="M5.477,86.161 C5.437,86.868 4.447,86.879 4.426,87.523 C4.426,87.56 4.191,87.63 4.082,87.611 C2.127,87.176 1.354,86.315 1.142,84.4 C1.108,84.096 1.397,83.601 0.53,83.723 C0.113,83.782 0.208,83.079 0.413,83.016 C1.395,82.726 1.498,81.73 2.324,81.321 C2.859,81.057 2.453,80.994 2.131,80.818 C0.398,79.867 0.329,78.739 1.918,77.557 C2.53,77.11 2.592,76.534 1.94,76.289 C1.057,75.964 1.372,75.326 1.515,75.037 C1.731,74.598 2.134,74.341 1.489,73.916 C1.302,73.796 1.504,73.511 1.878,73.416 C3.159,73.093 3.208,72.32 2.317,71.32 C1.889,70.841 1.211,70.02 2.199,69.399 C2.625,69.135 2.592,68.874 2.602,68.552 C2.628,67.41 2.142,66.301 2.298,65.15 C2.317,64.994 2.258,64.854 2.06,64.737 C0.823,64.012 1.439,63.385 2.266,62.818 C1.091,61.914 0.926,60.698 1.804,59.658 C1.834,59.622 1.914,59.584 1.899,59.571 C1.295,58.134 2.596,56.941 2.541,55.524 C2.482,54.169 1.112,53.218 1.431,51.844 C1.526,51.457 1.302,51.005 1.958,50.797 C2.273,50.695 2.332,50.424 2.134,50.062 C1.789,49.42 1.973,48.864 2.94,48.692 C1.878,48.091 1.739,47.472 2.412,46.693 C2.727,46.325 2.741,45.931 2.404,45.603 C1.534,44.747 1.456,44.017 2.233,43.221 C2.309,43.142 2.493,43.153 2.427,42.972 C1.764,41.037 2.68,39.149 2.764,37.236 C2.826,35.625 1.292,34.45 1.713,32.865 C1.775,32.625 1.555,32.5 1.27,32.485 C0.973,32.467 0.764,32.137 0.893,32.089 C1.731,31.765 1.482,30.8 2.167,30.469 C3.412,29.858 3.58,29.288 2.558,28.403 C2.127,28.027 1.65,27.972 2.643,27.546 C3.738,27.072 3.742,25.178 2.881,24.302 C2.397,23.813 2.453,23.241 2.807,22.822 C3.276,22.273 3.467,21.874 2.72,21.436 C2.602,21.372 2.522,21.256 2.42,21.168 C3.554,20.227 1.431,19.203 2.661,18.067 C3.599,17.202 2.302,15.627 3.313,14.519 C3.712,14.095 3.039,14.116 2.925,13.897 C2.61,13.285 2.222,12.667 3.47,12.531 C3.712,12.5 4.133,12.757 4.17,12.226 C4.191,11.832 4.213,11.366 3.778,11.306 C2.991,11.202 3.166,10.75 3.208,10.366 C3.269,9.755 3.866,9.979 4.228,9.994 C5.547,10.043 6.777,10.057 6.993,8.507 C7.07,7.991 7.601,8.211 7.938,8.195 C12.555,7.999 17.179,7.85 21.804,7.925 C23.459,7.949 25.078,7.412 26.796,7.827 C27.216,7.93 27.942,6.943 28.864,7.158 C29.384,7.281 29.977,6.929 30.372,7.735 C30.604,8.218 32.101,8.136 32.328,7.826 C32.862,7.088 33.477,7.442 34.053,7.431 C35.506,7.407 36.956,7.412 38.414,7.456 C38.72,7.459 38.794,7.463 39.007,7.207 C39.417,6.696 40.076,6.634 40.383,7.317 C40.607,7.798 41.076,7.767 41.31,7.646 C43.287,6.669 45.43,7.381 47.461,7.17 C48.391,7.068 49.373,7.384 50.226,6.715 C50.452,6.534 51.039,6.526 51.427,6.826 C51.954,7.226 52.455,7.737 53.023,6.775 C53.207,6.459 53.756,6.65 53.975,6.982 C54.368,7.587 54.796,7.615 55.268,7.093 C55.543,6.804 55.894,6.921 56.21,6.915 C57.656,6.903 59.117,6.915 60.567,6.903 C60.86,6.903 61.306,7.264 61.39,6.63 C61.434,6.289 61.954,6.321 62.104,6.414 C63.716,7.496 65.231,5.894 66.887,6.359 C68.636,6.846 70.519,6.669 72.35,6.636 C73.162,6.625 74.07,6.925 74.737,6.182 C74.832,6.077 75.308,6.052 75.425,6.156 C76.641,7.249 77.768,5.828 79.022,6.091 C80.413,6.386 81.907,6.337 83.357,6.38 C83.843,6.399 84.484,6.658 84.704,5.831 C84.807,5.425 87.267,5.691 87.67,6.118 C88.234,6.71 89.567,6.725 90.163,6.091 C90.449,5.784 90.775,5.886 91.075,5.894 C92.364,5.946 93.649,5.828 94.956,6.072 C95.63,6.201 96.611,6.586 97.307,5.539 C97.645,5.034 98.969,5.271 99.79,5.445 C100.412,5.577 101.021,5.647 101.632,5.618 C105.375,5.457 109.09,6.005 112.833,5.878 C113.312,5.856 114.008,6.156 114.15,5.318 C114.202,5.025 114.546,5.061 114.836,5.356 C115.564,6.118 115.978,6.138 116.611,5.405 C116.791,5.206 116.894,5.304 117.069,5.335 C118.186,5.57 119.581,4.896 120.398,6.131 C120.453,6.211 120.742,6.282 120.79,6.242 C122.181,4.892 123.957,5.848 125.539,5.674 C126.644,5.547 128.182,5.998 128.885,5.687 C129.896,5.224 130.299,5.333 130.975,5.867 C131.089,5.951 131.577,5.883 131.631,5.773 C132.027,5.042 132.342,4.64 132.719,5.781 C132.744,5.841 133.198,5.891 133.236,5.836 C134.224,4.354 135.864,5.089 137.065,5.184 C141.02,5.503 144.982,5.547 148.936,5.742 C150.27,5.808 151.602,5.894 152.935,5.874 C153.525,5.863 154.276,6.173 154.561,5.275 C154.623,5.094 155.52,4.765 155.893,5.543 C156.15,6.091 156.838,6.131 157.318,5.769 C158.336,5.015 158.643,5.039 159.313,6.101 C160.009,5.659 160.625,4.493 161.503,5.989 C161.624,6.203 162.206,6.441 162.719,6.118 C163.781,5.439 164.868,5.114 165.86,6.266 C166.025,6.459 166.278,6.42 166.487,6.286 C167.882,5.382 170.035,5.333 171.302,6.211 C171.669,6.472 171.829,6.326 172.206,6.111 C172.756,5.801 173.66,5.409 173.883,6.512 C173.989,7.057 174.443,6.899 174.774,6.899 C178.073,6.914 181.371,6.91 184.667,6.91 C184.758,6.91 184.902,6.939 184.949,6.899 C185.754,6.151 186.717,6.63 187.618,6.579 C187.984,6.565 188.819,6.932 188.819,6.012 C188.819,5.808 189.603,5.773 189.873,5.923 C190.972,6.519 191.902,6.359 192.817,5.647 C192.902,5.577 193.092,5.362 193.374,5.638 C193.917,6.162 194.656,6.016 195.01,5.402 C195.131,5.204 196.372,5.034 196.446,5.235 C196.589,5.635 197.164,5.683 197.179,5.706 C198.236,7.512 198.529,5.667 198.662,5.362 C199.192,4.219 200.265,4.627 200.874,4.886 C201.529,5.164 202.185,5.255 202.587,4.999 C204.476,3.798 206.706,4.037 208.76,3.897 C213.11,3.596 217.423,3.047 221.773,2.806 C222.005,2.791 222.404,2.738 222.419,2.656 C222.776,0.902 224.48,2.019 225.454,1.581 C226.01,1.328 226.695,1.136 227.259,0.957 C229.032,0.389 231.004,0.432 232.905,0.554 C233.433,0.585 233.11,1.133 233.271,1.418 C233.461,1.76 233.93,1.08 234.048,1.586 C234.187,2.165 233.351,1.956 233.341,2.138 C233.264,3.208 231.891,3.611 231.704,4.409 C231.521,5.199 231.367,6.305 232.078,7.009 C232.953,7.862 232.788,8.869 232.503,9.636 C232.29,10.2 232.414,10.673 232.327,11.176 C232.144,12.226 232.96,13.3 232.122,14.384 C231.96,14.589 231.207,15.921 232.824,15.989 C232.862,15.993 232.963,16.402 232.898,16.588 C232.568,17.501 232.481,18.447 232.319,19.382 C232.078,20.794 231.858,20.924 232.847,22.193 C233.007,22.399 233.045,22.906 232.883,23.047 C232.188,23.648 232.678,24.658 231.858,25.185 C231.821,25.211 231.818,25.259 231.785,25.284 C231.147,26.028 232.817,26.167 232.327,26.866 C231.899,27.468 231.8,28.02 232.648,28.404 C232.85,28.502 232.978,28.758 232.883,28.794 C231.65,29.362 232.938,30.658 231.946,31.276 C231.865,31.326 231.865,31.483 231.821,31.589 C233.256,31.819 232.334,32.92 232.73,33.544 C232.883,33.787 232.891,34.217 232.367,34.405 C232.019,34.531 231.994,34.889 232.053,35.191 C232.315,36.438 232.591,37.65 232.268,38.959 C232.18,39.347 232.656,40.072 232.824,40.67 C233.279,42.28 232.868,43.827 232.671,45.405 C232.539,46.389 232.781,47.421 232.963,48.417 C233.066,48.962 233.444,49.461 232.488,49.728 C232.18,49.811 232.334,50.262 232.382,50.548 C232.758,52.569 233.513,54.678 233.059,56.626 C232.73,58.047 233.645,59.673 232.268,60.958 C232.122,61.104 232.004,62.144 232.642,62.36 C233.227,62.554 233.117,62.847 233.22,63.199 C233.461,64.015 233.334,64.689 232.481,65.165 C232.114,65.374 231.704,65.593 232.488,65.737 C232.905,65.813 232.891,66.022 232.912,66.279 C232.986,67.065 232.114,67.922 233.187,68.637 C233.294,68.713 233.315,69.259 232.971,69.281 C231.616,69.354 231.939,70.09 232.019,70.841 C232.07,71.335 232.074,71.803 231.616,72.335 C231.265,72.753 231.255,73.572 231.99,74.243 C232.704,74.904 232.847,76.08 232.437,76.857 C232.202,77.329 232.053,77.747 232.059,78.205 C232.085,79.529 231.397,80.818 231.873,82.17 C231.967,82.434 230.635,82.938 230.32,82.803 C229.448,82.408 228.262,82.689 228.101,83.195 C227.823,84.019 227.348,83.898 226.75,83.909 C225.267,83.942 223.795,83.923 222.293,84.128 C220.69,84.345 219.065,83.755 217.421,83.902 C216.446,83.986 215.472,83.938 214.685,84.608 C214.626,84.667 214.037,85.144 213.645,84.55 C213.374,84.151 210.726,84.253 210.303,84.565 C209.108,85.469 208.929,85.367 207.112,84.829 C206.725,84.707 205.385,84.43 204.986,85.429 C204.838,85.802 204.557,85.975 204.121,85.956 C203.348,85.92 202.609,86.077 201.843,86.176 C201.32,86.245 200.727,86.425 200.192,85.659 C199.698,84.941 198.482,85.648 197.666,85.802 C196.67,85.981 196.227,86.073 196.237,85.015 C196.245,84.451 195.673,84.422 195.165,84.422 C190.225,84.426 185.282,84.422 180.334,84.43 C179.935,84.43 179.357,84.301 179.416,84.92 C179.522,85.836 178.837,85.729 178.223,85.703 C171.69,85.399 165.151,85.414 158.625,84.956 C158.039,84.92 157.256,84.575 156.853,85.545 C156.706,85.897 155.498,85.948 155.051,85.498 C154.158,84.605 153.286,84.791 152.334,85.268 C152.155,85.355 152.079,85.422 151.866,85.312 C150.177,84.451 150.215,84.521 148.351,85.355 C147.802,85.604 146.835,85.758 146.373,85.085 C145.981,84.513 145.305,84.54 145.044,84.747 C143.927,85.641 142.646,84.949 141.493,85.195 C140.698,85.363 141.1,84.492 140.493,84.396 C139.728,84.279 139.306,84.901 138.72,84.909 C136.136,84.953 133.55,84.949 130.965,84.85 C130.394,84.832 129.683,84.901 129.171,84.261 C128.797,83.785 128.548,84.685 128.051,84.681 C126.359,84.656 124.623,84.857 122.975,84.608 C120.841,84.289 118.709,84.345 116.63,84.525 C115.693,84.601 114.693,84.931 113.675,84.931 C113.118,84.931 112.507,85.063 112.21,84.407 C112.045,84.052 111.441,84.103 111.452,84.337 C111.507,85.553 110.427,84.941 110.097,84.886 C108.501,84.623 106.901,84.704 105.297,84.685 C104.989,84.685 104.638,84.565 104.393,84.901 C104.092,85.308 103.8,85.407 103.634,84.791 C103.631,84.736 103.254,84.671 103.155,84.736 C101.544,85.766 99.731,84.92 98.04,85.184 C97.768,85.223 97.453,85.209 97.402,84.835 C97.318,84.224 96.611,84.319 96.414,84.466 C95.213,85.308 93.851,84.799 92.569,84.931 C92.035,84.986 91.393,84.759 91.127,85.432 C91.104,85.509 90.863,85.612 90.811,85.579 C88.864,84.415 86.849,86.026 84.894,85.462 C84.601,85.378 84.389,85.513 84.301,85.847 C84.144,86.444 83.825,86.205 83.566,85.89 C82.99,85.176 82.873,85.129 82.617,85.788 C82.376,86.395 82.082,86.132 81.65,86.087 C79.113,85.824 76.484,85.648 74.053,86.081 C72.288,86.395 70.562,86.585 68.886,86.399 C66.857,86.176 64.784,86.015 62.851,86.311 C61.174,86.564 59.53,86.735 57.85,86.718 C56.993,86.703 56.128,86.887 55.286,86.52 C55.041,86.417 54.517,86.465 54.357,86.626 C53.133,87.845 51.573,87.081 50.182,87.182 C49.391,87.244 48.552,86.684 47.824,87.421 C47.685,87.56 47.326,87.56 47.176,87.358 C46.813,86.839 46.52,86.805 46.165,87.358 C46.095,87.457 45.774,87.531 45.641,87.48 C44.046,86.849 42.448,87.816 40.852,87.476 C39.387,87.161 38.062,86.545 36.385,86.798 C32.914,87.318 29.428,87.802 25.884,87.754 C23.851,89.153 21.372,88.588 19.106,88.903 C16.774,89.236 14.372,89.185 11.999,89.281 C11.376,89.302 9.695,88.369 9.223,87.911 C8.565,87.267 7.524,87.241 6.678,87.062 C6.011,86.915 5.817,86.6 5.477,86.161" id="Fill-16980" fill="#2359A8"></path>
                <path d="M109.695,37.544 L113.284,37.544 C116.285,37.544 117.849,36.068 117.849,33.419 C117.849,30.762 116.235,29.289 113.137,29.289 L109.695,29.289 L109.695,37.544 Z M99.966,27.321 C99.966,23.783 101.735,21.869 104.971,21.869 L113.386,21.869 C122.474,21.869 127.443,25.799 127.443,33.419 C127.443,40.984 122.672,44.719 113.676,44.719 L109.841,44.719 L109.841,53.668 L99.966,53.668 L99.966,27.321 Z" id="Fill-16982" fill="#FFFFFF"></path>
                <path d="M130.145,26.191 C130.145,23.098 131.566,21.62 134.276,21.62 L135.696,21.62 C138.498,21.62 139.973,23.098 139.973,26.191 L139.973,45.114 L149.655,45.114 C152.705,45.114 154.18,46.492 154.18,49.197 L154.18,49.34 C154.18,52.141 152.705,53.667 149.655,53.667 L130.145,53.667 L130.145,26.191 Z" id="Fill-16984" fill="#FFFFFF"></path>
                <path d="M168.285,40.001 L175.117,40.001 L171.675,30.763 L168.285,40.001 Z M176.886,47.081 L166.615,47.081 L164.107,53.668 L154.275,53.668 L165.634,24.327 C166.124,22.747 167.446,21.62 171.869,21.62 C176.348,21.62 177.475,22.747 177.967,24.327 L189.815,53.668 L179.54,53.668 L176.886,47.081 Z" id="Fill-16986" fill="#FFFFFF"></path>
                <path d="M191.089,26.191 C191.089,23.144 192.608,21.62 195.123,21.62 L196.054,21.62 C198.369,21.62 199.101,22.309 200.474,23.929 L211.88,38.774 L211.88,21.867 L221.121,21.867 L221.121,49.34 C221.121,52.39 219.598,53.914 217.145,53.914 L216.355,53.914 C213.996,53.914 213.307,53.323 211.982,51.749 L200.33,36.663 L200.33,53.667 L191.089,53.667 L191.089,26.191 Z" id="Fill-16988" fill="#FFFFFF"></path>
                <path d="M100.724,64.093 C100.724,63.276 101.214,62.873 101.929,62.873 L102.347,62.873 C103.088,62.873 103.591,63.276 103.591,64.093 L103.591,72.2 L100.724,72.2 L100.724,64.093 Z" id="Fill-16990" fill="#FFFFFF"></path>
                <path d="M105.729,64.191 C105.729,63.298 106.172,62.859 106.901,62.859 L107.175,62.859 C107.846,62.859 108.062,63.056 108.465,63.532 L111.785,67.86 L111.785,62.927 L114.481,62.927 L114.481,70.936 C114.481,71.822 114.037,72.271 113.32,72.271 L113.093,72.271 C112.404,72.271 112.207,72.1 111.818,71.642 L108.42,67.245 L108.42,72.199 L105.729,72.199 L105.729,64.191 Z" id="Fill-16992" fill="#FFFFFF"></path>
                <path d="M115.996,64.162 L115.996,64.122 C115.996,63.33 116.461,62.929 117.322,62.929 L123.261,62.929 C124.15,62.929 124.6,63.33 124.6,64.122 L124.6,64.162 C124.6,64.979 124.15,65.422 123.261,65.422 L121.763,65.422 L121.763,72.2 L118.877,72.2 L118.877,65.422 L117.322,65.422 C116.461,65.422 115.996,64.979 115.996,64.162" id="Fill-16994" fill="#FFFFFF"></path>
                <path d="M126.102,70.757 L126.102,64.521 C126.102,63.489 126.622,62.928 127.567,62.928 L133.769,62.928 L133.769,65.411 L128.973,65.411 L128.973,66.341 L132.554,66.341 L132.554,68.663 L128.973,68.663 L128.973,69.735 L133.784,69.735 L133.784,72.199 L127.567,72.199 C126.685,72.199 126.102,71.723 126.102,70.757" id="Fill-16996" fill="#FFFFFF"></path>
                <path d="M138.472,67.271 L139.68,67.271 C140.534,67.271 140.969,66.883 140.969,66.198 C140.969,65.48 140.547,65.107 139.647,65.107 L138.472,65.107 L138.472,67.271 Z M140.35,71.053 L139.032,69.303 L138.516,69.303 L138.516,72.2 L135.652,72.2 L135.652,64.52 C135.652,63.488 136.165,62.927 137.11,62.927 L139.973,62.927 C142.55,62.927 143.843,63.99 143.843,65.971 C143.843,67.315 143.143,68.314 141.841,68.687 L143.928,71.28 C144.015,71.393 143.514,72.273 142.28,72.273 C141.393,72.273 140.947,71.881 140.35,71.053 Z" id="Fill-16998" fill="#FFFFFF"></path>
                <path d="M145.677,64.191 C145.677,63.298 146.124,62.859 146.853,62.859 L147.123,62.859 C147.801,62.859 148.016,63.056 148.419,63.532 L151.741,67.86 L151.741,62.927 L154.428,62.927 L154.428,70.936 C154.428,71.822 153.989,72.271 153.268,72.271 L153.044,72.271 C152.356,72.271 152.159,72.1 151.766,71.642 L148.372,67.245 L148.372,72.199 L145.677,72.199 L145.677,64.191 Z" id="Fill-17000" fill="#FFFFFF"></path>
                <path d="M159.679,68.219 L161.671,68.219 L160.671,65.528 L159.679,68.219 Z M162.187,70.284 L159.196,70.284 L158.463,72.2 L155.596,72.2 L158.903,63.645 C159.05,63.187 159.434,62.858 160.726,62.858 C162.026,62.858 162.359,63.187 162.499,63.645 L165.955,72.2 L162.964,72.2 L162.187,70.284 Z" id="Fill-17002" fill="#FFFFFF"></path>
                <path d="M166.527,64.162 L166.527,64.122 C166.527,63.33 166.989,62.929 167.846,62.929 L173.799,62.929 C174.685,62.929 175.128,63.33 175.128,64.122 L175.128,64.162 C175.128,64.979 174.685,65.422 173.799,65.422 L172.29,65.422 L172.29,72.2 L169.412,72.2 L169.412,65.422 L167.846,65.422 C166.989,65.422 166.527,64.979 166.527,64.162" id="Fill-17004" fill="#FFFFFF"></path>
                <path d="M176.735,64.093 C176.735,63.276 177.222,62.873 177.94,62.873 L178.354,62.873 C179.093,62.873 179.599,63.276 179.599,64.093 L179.599,72.2 L176.735,72.2 L176.735,64.093 Z" id="Fill-17006" fill="#FFFFFF"></path>
                <path d="M188.365,67.557 C188.365,66.198 187.552,65.264 186.317,65.264 C185.061,65.264 184.257,66.155 184.257,67.557 C184.257,68.931 185.076,69.838 186.317,69.838 C187.552,69.838 188.365,68.931 188.365,67.557 M181.422,67.557 C181.422,64.752 183.469,62.736 186.317,62.736 C189.169,62.736 191.206,64.737 191.206,67.557 C191.206,70.379 189.169,72.401 186.317,72.401 C183.457,72.401 181.422,70.394 181.422,67.557" id="Fill-17008" fill="#FFFFFF"></path>
                <path d="M192.942,64.191 C192.942,63.298 193.385,62.859 194.114,62.859 L194.384,62.859 C195.059,62.859 195.278,63.056 195.68,63.532 L199.006,67.86 L199.006,62.927 L201.694,62.927 L201.694,70.936 C201.694,71.822 201.254,72.271 200.529,72.271 L200.305,72.271 C199.617,72.271 199.416,72.1 199.028,71.642 L195.634,67.245 L195.634,72.199 L192.942,72.199 L192.942,64.191 Z" id="Fill-17010" fill="#FFFFFF"></path>
                <path d="M206.94,68.219 L208.928,68.219 L207.925,65.528 L206.94,68.219 Z M209.445,70.284 L206.453,70.284 L205.72,72.2 L202.85,72.2 L206.167,63.645 C206.306,63.187 206.699,62.858 207.983,62.858 C209.294,62.858 209.623,63.187 209.762,63.645 L213.215,72.2 L210.224,72.2 L209.445,70.284 Z" id="Fill-17012" fill="#FFFFFF"></path>
                <path d="M214.311,64.191 C214.311,63.286 214.721,62.859 215.504,62.859 L215.93,62.859 C216.739,62.859 217.171,63.286 217.171,64.191 L217.171,69.702 L219.994,69.702 C220.888,69.702 221.312,70.108 221.312,70.891 L221.312,70.936 C221.312,71.752 220.888,72.199 219.994,72.199 L214.311,72.199 L214.311,64.191 Z" id="Fill-17014" fill="#FFFFFF"></path>
                <path d="M21.764,25.222 C21.093,25.636 18.083,28.844 17.699,29.384 C17.531,29.623 16.945,30.619 16.901,30.678 C16.81,30.788 16.375,31.363 16.29,31.447 C16.224,31.512 15.894,32.514 15.814,32.644 C15.682,32.859 15.151,33.34 15.115,33.45 C15.096,33.519 15.366,34.116 14.628,34.735 C14.137,35.159 13.77,36.776 13.72,36.904 C13.61,37.205 12.968,37.951 13.074,38.634 C13.126,38.929 12.943,39.221 12.774,39.475 C12.662,39.711 12.705,40.523 12.219,40.695 C11.797,40.846 11.947,41.555 12.057,41.768 C12.379,42.37 12.12,42.955 12.115,43.001 C12.112,43.045 11.955,43.578 12.204,43.927 C12.54,44.414 12.167,45.231 12.149,45.511 C12.054,46.988 13.097,47.421 12.797,48.296 C12.61,48.837 12.987,49.299 12.903,49.852 C12.837,50.302 13.192,50.508 13.258,50.654 C13.298,50.738 13.61,51.482 13.587,51.613 C13.456,52.408 14.649,53.583 14.587,54.751 C14.529,55.754 15.715,56.193 15.795,56.296 C16.377,56.999 16.377,57.842 17.004,58.255 C17.059,58.295 17.737,58.808 17.817,58.852 C18.194,59.072 17.846,59.329 17.897,59.454 C18.391,60.566 19.461,61.284 19.461,61.284 C22.038,64.216 28.16,68.079 28.751,68.157 C29.34,68.241 29.901,68.34 30.358,68.717 C30.845,69.119 33.034,69.918 33.038,69.918 C33.357,70.05 33.697,70.021 34.019,70.127 C34.324,70.236 36.22,70.914 36.498,71.009 C36.883,71.148 37.34,71.42 38.762,71.76 C39.381,71.899 40.003,72.262 40.639,72.382 C41.35,72.526 41.965,71.906 42.558,72.28 C43.221,72.686 44.14,72.946 44.569,73.008 C47.615,73.671 51.954,73.795 55.045,73.711 C55.045,73.711 56.026,73.92 57.08,73.711 C58.165,73.656 59.387,73.29 60.464,73.229 C62.021,72.786 63.851,72.419 65.316,71.675 C65.824,71.555 66.395,70.998 66.718,70.973 C67.425,70.698 68.443,69.778 68.552,69.709 C68.662,69.647 69.61,69.071 69.61,69.071 C69.61,69.071 69.926,68.868 70.241,68.662 C70.452,68.486 72.979,66.483 72.979,66.483 C73.181,66.063 73.667,65.905 74.034,65.626 C74.07,65.561 74.107,65.506 74.158,65.455 C74.298,65.315 74.473,65.22 74.642,65.118 C74.722,65.073 74.796,65.022 74.868,64.961 C74.902,64.923 74.935,64.894 74.957,64.854 C74.986,64.803 74.997,64.752 75.03,64.707 C75.045,64.682 75.066,64.667 75.089,64.667 C75.136,64.659 75.165,64.71 75.206,64.7 C75.239,64.7 75.26,64.645 75.279,64.615 C75.305,64.56 75.33,64.539 75.389,64.505 C75.459,64.459 75.44,64.359 75.389,64.309 C75.338,64.268 75.275,64.224 75.26,64.147 C75.239,64.041 75.345,63.95 75.44,63.901 C75.52,63.85 75.623,63.861 75.707,63.92 C75.777,63.964 75.803,64.059 75.879,64.085 C75.967,64.117 76.033,64.007 76.026,63.935 C76.026,63.876 76.026,63.85 76.069,63.796 C76.132,63.701 75.961,63.716 75.917,63.678 C75.872,63.642 75.957,63.616 75.967,63.579 C75.993,63.481 75.872,63.437 75.792,63.426 C75.689,63.418 75.615,63.477 75.55,63.547 C75.52,63.583 75.484,63.623 75.448,63.65 C75.421,63.661 75.378,63.661 75.366,63.678 C75.345,63.701 75.359,63.737 75.353,63.763 C75.338,63.811 75.286,63.8 75.243,63.796 C75.198,63.788 75.154,63.788 75.106,63.788 C75.045,63.788 74.979,63.807 74.92,63.825 C74.883,63.84 74.851,63.876 74.813,63.895 C74.751,63.927 74.693,63.946 74.631,63.95 C74.451,63.964 74.306,64.066 74.152,64.14 C74.034,64.199 73.909,64.271 73.785,64.294 C73.741,64.305 73.667,64.309 73.624,64.305 C73.576,64.294 73.557,64.275 73.514,64.309 C73.477,64.338 73.449,64.385 73.403,64.408 C73.371,64.444 73.316,64.451 73.291,64.488 C73.261,64.539 73.251,64.602 73.213,64.649 C73.162,64.71 73.105,64.748 73.038,64.769 C72.862,64.817 72.628,64.737 72.489,64.645 C72.299,64.509 72.254,64.224 72.203,64.007 C72.193,63.931 72.203,63.821 72.042,63.84 C71.984,63.85 71.932,63.931 71.889,63.975 C71.705,64.212 71.442,64.359 71.155,64.444 C71.005,64.473 70.855,64.488 70.701,64.505 C70.581,64.505 70.456,64.444 70.344,64.459 C70.262,64.466 70.247,64.539 70.226,64.604 C70.203,64.653 70.182,64.7 70.163,64.752 C70.101,64.864 70.006,64.898 69.882,64.851 C69.816,64.813 69.662,64.725 69.768,64.642 C69.838,64.59 70.017,64.524 69.969,64.408 C69.948,64.345 69.848,64.396 69.808,64.415 C69.728,64.459 69.647,64.505 69.555,64.505 C69.413,64.505 69.223,64.448 69.211,64.286 C69.211,64.264 69.211,64.231 69.223,64.206 C69.238,64.172 69.27,64.161 69.295,64.147 C69.333,64.136 69.384,64.104 69.405,64.066 C69.434,64.016 69.365,63.964 69.384,63.916 C69.394,63.861 69.53,63.781 69.567,63.722 C69.635,63.623 69.677,63.532 69.787,63.481 C69.889,63.441 70.108,63.481 70.152,63.382 C70.203,63.247 70.171,63.115 70.27,62.983 C70.386,62.833 70.494,62.848 70.372,62.675 C70.222,62.474 69.998,62.66 69.844,62.763 C69.768,62.818 69.677,62.884 69.582,62.895 C69.447,62.895 69.497,62.796 69.559,62.726 C69.625,62.642 69.721,62.587 69.783,62.507 C69.867,62.386 69.903,62.257 70.087,62.276 C70.167,62.283 70.262,62.316 70.328,62.232 C70.446,62.082 70.31,61.953 70.167,61.946 C69.992,61.946 69.823,62.016 69.677,62.107 C69.555,62.196 69.434,62.283 69.318,62.386 C69.211,62.474 69.12,62.58 68.97,62.507 C68.934,62.481 68.922,62.474 68.879,62.474 C68.791,62.485 68.71,62.565 68.643,62.612 C68.497,62.726 68.322,62.796 68.259,62.551 C68.242,62.485 68.413,62.419 68.461,62.371 C68.461,62.371 68.841,62.32 68.926,62.298 C69.04,62.272 69.27,62.221 69.346,62.111 C69.369,62.075 69.384,62.042 69.42,62.004 C69.589,61.814 69.358,61.544 69.143,61.672 C68.996,61.763 68.879,61.936 68.74,62.042 C68.643,62.13 68.527,62.213 68.394,62.213 C68.271,62.213 68.047,62.107 68.128,61.953 C68.168,61.877 68.314,61.877 68.388,61.833 C68.476,61.786 68.523,61.679 68.611,61.62 C68.75,61.503 68.9,61.423 69.076,61.383 C69.179,61.368 69.369,61.356 69.369,61.2 C69.377,61.122 69.306,61.09 69.238,61.105 C69.149,61.122 69.084,61.14 68.989,61.13 C68.856,61.109 68.706,61.105 68.611,61.016 C68.527,60.94 68.571,60.752 68.443,60.746 C68.227,60.727 68.373,60.862 68.314,60.98 C68.242,61.09 67.887,61.174 67.824,61.027 C67.746,60.874 67.955,60.72 68.077,60.665 C68.191,60.613 68.322,60.556 68.45,60.552 C68.512,60.544 68.552,60.566 68.611,60.526 C68.651,60.493 68.673,60.343 68.784,60.324 C68.841,60.309 68.9,60.197 68.812,60.152 C68.754,60.13 68.673,60.174 68.615,60.182 C68.552,60.189 68.482,60.174 68.417,60.185 C68.278,60.229 68.259,60.351 68.191,60.457 C68.128,60.552 67.985,60.625 67.868,60.646 C67.714,60.672 67.678,60.518 67.552,60.463 C67.37,60.376 67.414,60.588 67.37,60.687 C67.33,60.815 67.183,60.818 67.077,60.866 C66.96,60.921 66.887,61.027 66.791,61.111 C66.553,61.331 66.249,61.298 65.956,61.383 C65.711,61.466 65.795,61.478 65.685,61.552 C65.466,61.712 65.194,61.466 64.968,61.558 C64.942,61.565 64.835,61.668 64.78,61.679 C64.704,61.709 64.704,61.624 64.638,61.624 C64.279,61.613 64.159,61.554 64.09,61.565 C63.976,61.592 63.891,61.664 63.832,61.749 C63.723,61.913 63.408,62.027 63.324,62.027 C63.231,62.027 63.17,61.928 63.111,61.852 C63.028,61.771 62.954,61.793 62.859,61.863 C62.749,61.936 62.752,62.103 62.69,62.137 C62.623,62.17 62.488,62.17 62.515,62.067 C62.532,62.016 62.587,61.979 62.602,61.928 C62.623,61.869 62.599,61.829 62.532,61.833 C62.488,61.833 62.397,61.921 62.357,61.936 C62.247,61.979 62.097,61.969 61.987,61.946 C61.928,61.921 61.877,61.909 61.825,61.892 C61.782,61.869 61.738,61.833 61.686,61.833 C61.599,61.837 61.584,61.946 61.5,61.957 C61.409,61.987 61.314,61.953 61.229,61.936 C61.164,61.913 61.068,61.877 60.998,61.896 L60.823,62.052 C60.698,62.075 60.573,62.048 60.445,62.048 C60.362,62.042 59.68,62.067 59.417,62.111 C58.948,62.196 58.519,62.375 58.051,62.43 C57.589,62.485 55.499,62.58 55.199,62.576 C54.905,62.565 53.576,62.515 53.434,62.652 C53.411,62.686 53.107,62.652 53.052,62.652 C52.936,62.642 52.936,62.485 52.833,62.456 C52.555,62.331 52.774,62.62 52.438,62.394 C52.206,62.232 51.903,62.298 51.533,62.31 C50.929,62.323 49.904,62.158 49.699,62.137 C49.318,62.09 48.937,61.928 48.725,61.679 C48.542,61.466 48.231,61.408 48.191,61.109 C48.094,60.376 48.373,59.256 48.432,58.947 C48.498,58.633 48.593,57.472 48.696,57.387 C48.753,57.337 48.696,57.297 48.753,57.242 C49.168,56.835 49.021,56.816 49.099,56.406 C49.223,55.711 49.5,54.686 50.285,54.491 C50.657,54.4 51.112,54.173 51.368,54.082 C51.68,53.975 52.306,54.055 52.789,53.839 C52.899,53.788 52.972,53.734 53.089,53.719 C53.565,53.671 54.034,53.81 54.502,53.751 C54.95,53.693 55.463,53.656 55.568,53.675 C55.748,53.715 55.608,53.518 55.682,53.488 C55.902,53.411 55.887,53.685 56.151,53.751 C56.345,53.807 57.12,53.839 57.323,53.839 C57.373,53.839 57.333,53.744 57.365,53.7 C57.513,53.558 57.644,53.839 57.725,53.902 C57.926,54.07 61.335,54.451 61.57,54.498 C61.95,54.576 62.522,54.55 62.998,54.323 C63.206,54.228 63.921,53.902 64.067,53.751 C64.122,53.689 64.027,53.598 64.067,53.539 C64.206,53.39 64.352,53.096 64.286,52.759 C64.272,52.649 64.324,52.547 64.352,52.452 C64.411,52.29 64.316,52.185 64.331,52.028 C64.341,51.884 64.367,51.705 64.47,51.606 C64.645,51.431 64.664,51.192 64.586,51.057 C64.44,50.793 64.199,50.676 64.14,50.635 C64.008,50.555 64.14,50.639 64.159,50.471 C64.159,50.386 63.898,50.424 63.898,50.424 C63.898,50.424 63.4,50.401 63.239,50.346 C62.775,50.175 62.317,50.131 61.825,50.12 C61.057,50.112 60.318,49.808 59.556,49.871 C59.431,49.875 59.161,49.955 59.102,49.947 C58.973,49.932 59.094,49.723 58.633,49.738 C58.209,49.749 57.765,49.647 57.355,49.538 C56.981,49.432 55.902,49.497 55.769,49.432 C55.704,49.402 55.612,49.417 55.535,49.383 C55.371,49.332 55.301,49.101 54.971,49.09 C54.905,49.086 54.847,48.969 54.773,48.969 C54.642,48.963 54.422,49.024 54.345,48.969 C54.207,48.849 53.891,48.79 53.836,48.577 C53.749,48.172 54.536,47.688 54.796,47.49 C55.03,47.319 55.309,47.029 55.623,47.051 C55.813,47.059 55.902,46.927 56.033,46.78 C56.308,46.459 57.363,45.057 57.699,44.792 C58.061,44.506 57.783,44.155 58.245,43.806 C58.388,43.701 58.564,43.232 58.619,43.138 C58.845,42.73 58.764,42.046 59.178,41.758 C59.212,41.738 59.292,41.607 59.358,41.449 C59.41,41.304 59.27,41.174 59.241,41.12 C59.168,40.999 59.216,40.837 59.212,40.695 C59.201,40.596 59.174,39.679 59.174,39.497 C59.182,39.221 59.3,39.088 59.571,39.11 C59.761,39.126 59.577,38.697 59.545,38.567 C59.467,38.199 59.109,37.7 58.553,37.646 C57.886,37.583 57.373,38.067 56.956,38.537 C56.67,38.856 55.908,39.964 55.777,40.043 C55.554,40.178 55.763,40.277 55.499,40.608 C55.418,40.711 55.25,40.685 55.176,40.787 C55.081,40.921 54.891,41.249 54.895,41.406 C54.898,41.528 54.938,41.652 54.832,41.733 C54.536,41.967 54.477,41.648 54.345,41.733 C54.239,41.804 54.192,41.933 54.14,41.974 C53.814,42.255 53.749,42.361 53.418,42.432 C53.221,42.469 52.825,42.505 52.708,42.725 C52.628,42.868 52.21,42.895 52.21,42.604 C52.206,42.401 52.408,41.675 52.43,41.6 C52.533,41.245 51.954,41.022 52.233,40.661 C52.386,40.468 52.364,40.265 52.24,40.064 C52.196,39.982 52.094,39.596 52.035,39.521 C51.866,39.305 52.101,39.235 51.903,38.948 C51.79,38.771 51.625,39.068 51.595,38.625 C51.573,38.364 51.303,38.283 51.17,38.156 C50.988,37.985 50.79,37.815 50.585,37.668 C50.032,37.286 49.413,37.014 48.761,36.866 C48.099,36.719 47.414,36.674 46.751,36.798 C46.579,36.825 46.308,36.813 46.308,36.646 C46.308,36.599 46.246,36.595 46.205,36.567 C46.08,36.48 45.802,36.601 45.671,36.658 C45.247,36.825 45.656,37.018 45.429,37.092 C45.099,37.191 44.324,37.428 44.103,37.488 C44.02,37.522 43.847,37.573 43.613,37.573 C43.393,37.573 43.383,37.761 43.104,37.89 C42.573,38.127 42.697,39.36 42.734,39.669 C42.734,39.721 42.771,39.874 42.874,39.838 C42.99,39.799 43.123,39.953 43.104,40.217 C43.085,40.478 43.085,40.616 42.99,40.936 C42.895,41.253 43.108,41.074 43.085,41.386 C43.068,41.617 43.379,42.424 43.343,42.654 C43.334,42.723 43.408,42.804 43.434,42.863 C43.459,42.919 43.503,42.934 43.558,42.939 C43.708,42.958 43.687,43.259 43.811,43.542 C43.884,43.74 43.95,44.01 44.111,44.144 C44.225,44.231 44.232,44.348 44.291,44.414 C44.367,44.523 44.419,44.602 44.36,44.677 C44.297,44.76 44.037,44.969 43.942,44.929 C43.786,44.874 43.334,44.834 43.188,44.792 C42.887,44.689 42.515,44.865 42.431,44.777 C42.331,44.677 42.178,44.677 42.046,44.628 C41.918,44.578 41.899,44.739 41.833,44.722 C41.694,44.682 41.665,44.583 41.574,44.493 C41.369,44.265 41.09,44.259 40.793,44.144 C40.42,43.995 40.031,43.871 39.71,43.642 C39.358,43.391 38.165,42.95 38.11,42.818 C38.04,42.636 37.667,42.715 37.652,42.667 C37.616,42.537 37.282,42.5 37.268,42.406 C37.257,42.276 37.023,42.302 36.92,42.227 C36.842,42.177 36.649,42.062 36.546,42.113 C36.436,42.172 36.29,42.235 36.176,42.152 C36.111,42.094 36.059,42.046 35.968,42.023 C35.725,41.957 35.568,42.051 35.389,42.196 C35.176,42.361 34.971,42.541 34.788,42.743 C34.686,42.871 34.642,43.025 34.572,43.177 C34.511,43.307 34.386,43.391 34.319,43.519 C34.232,43.681 34.262,43.845 34.444,43.893 C34.656,43.942 34.467,44.105 34.609,44.186 C34.84,44.303 34.927,44.739 35.206,45.016 C35.55,45.346 35.664,45.848 35.773,46.056 C35.917,46.35 36.468,46.118 36.567,46.489 C36.612,46.641 36.93,46.916 37.506,47.421 C37.711,47.6 38.589,48.077 38.927,48.113 C39.827,48.216 40.219,48.632 40.588,48.893 C40.757,49.003 41.078,48.904 41.481,49.654 C41.628,49.943 41.709,50.91 41.789,51.393 C41.958,52.44 42.368,52.275 42.171,52.646 C41.929,53.118 42.368,53.671 42.361,54.869 C42.353,55.154 42.218,55.612 42.068,55.952 C41.789,56.634 42.251,57.516 42.133,57.797 C41.965,58.186 41.892,59.68 41.548,59.988 C41.405,60.115 41.152,60.083 40.97,60.002 C40.647,59.863 39.651,60.115 39.417,59.904 C38.984,59.511 38.465,59.566 38.142,59.526 C37.865,59.486 37.498,59.26 37.293,59.163 C36.854,58.947 35.074,58.306 34.416,57.962 C32.778,57.102 30.53,56.142 30.365,55.264 C30.296,54.894 27.839,53.324 27.465,52.774 C27.25,52.484 26.821,52.024 26.748,51.884 C26.644,51.694 26.6,51.254 26.462,51.061 C26.146,50.625 25.748,50.57 25.583,49.731 C25.528,49.417 25.312,49.589 24.968,48.717 C24.075,46.471 24.185,43.883 24.221,42.904 C24.254,42.073 24.983,40.237 25.192,39.59 C25.323,39.195 25.802,38.949 25.901,38.269 C25.931,38.061 26.982,37.347 27.347,36.738 C27.67,36.203 28.388,35.568 28.901,35.244 C29.186,35.061 33.038,32.23 33.375,31.834 C33.5,31.68 33.866,31.132 34.664,31.113 C34.851,31.113 35.279,30.832 35.298,30.678 C35.359,30.252 39.326,29.3 39.951,28.619 C40.149,28.411 41.339,28.073 41.937,27.954 C42.101,27.912 42.068,28.122 42.456,27.765 C42.741,27.504 43.379,27.943 43.737,27.58 C44.202,27.117 44.339,27.016 45.261,27.031 C46.18,27.042 46.044,26.562 46.777,26.511 C47.176,26.476 47.809,26.269 48.018,25.874 C48.179,25.585 49.888,25.438 50.23,25.178 C51.054,24.563 51.661,25.242 52.664,25.036 C52.789,25.012 53.225,25.152 53.456,25.142 C53.69,25.114 54.074,24.77 54.217,25.081 C54.298,25.273 55.857,25.182 56.238,25.163 C56.356,25.158 56.605,25.002 56.579,25.114 C56.531,25.3 57.557,25.211 57.762,25.375 C58.025,25.596 58.443,25.826 58.969,25.665 C59.285,25.577 60.434,25.756 60.86,25.906 C61.152,26.008 60.636,26.18 61.732,26.225 C62.437,26.249 64.88,27.7 65.388,27.797 C66,27.833 66.161,28.472 66.794,28.705 C67.927,29.129 69.295,30.092 72.105,32.278 C72.24,32.384 72.379,32.866 72.529,32.859 C73.247,32.831 73.931,34.178 74.239,34.565 C74.338,34.675 74.803,34.393 74.745,35.219 C74.733,35.344 75.106,35.161 75.117,35.734 C75.129,36.385 76.29,36.753 76.567,38.156 C76.597,38.3 76.765,38.409 76.816,38.537 C77.025,39.049 77.795,41.41 77.783,42.266 C77.776,42.527 77.922,44.087 77.688,45.235 C77.476,46.258 77.092,47.245 76.7,48.219 C76.468,48.82 75.901,49.621 75.864,49.83 C75.828,50.035 75.689,50.247 75.729,50.464 C75.762,50.61 75.762,50.819 75.608,50.874 C75.425,50.943 75.176,51.072 75.151,51.321 C75.136,51.47 74.788,51.482 74.803,51.657 C74.825,51.874 74.429,51.859 74.401,52.083 C74.386,52.228 74.057,52.349 74.122,52.547 C74.158,52.661 73.983,52.668 73.851,52.719 C73.675,52.774 73.346,53.294 73.346,53.382 C73.346,53.484 73.151,53.419 73.126,53.74 C73.105,53.943 72.909,53.957 72.796,54.122 C72.694,54.264 72.569,54.304 72.548,54.337 C72.485,54.443 72.459,54.623 72.47,54.784 C72.481,54.92 72.233,55.355 72.525,55.345 C72.65,55.342 72.687,55.191 72.767,55.114 C72.892,55.007 73.06,54.905 73.206,54.835 C73.401,54.737 73.646,54.697 73.756,54.488 C73.804,54.392 73.928,54.151 74.067,54.132 C74.107,54.128 74.158,54.139 74.203,54.114 C74.254,54.097 74.291,54.042 74.33,54.008 C74.414,53.894 74.502,53.778 74.591,53.668 C74.642,53.609 74.781,53.671 74.817,53.573 C74.847,53.51 74.781,53.474 74.861,53.437 C74.92,53.404 74.994,53.404 75.045,53.371 C75.096,53.335 75.136,53.284 75.187,53.246 C75.286,53.166 75.396,53.107 75.509,53.187 C75.682,53.294 75.117,53.759 75.081,53.807 C74.946,53.957 74.906,54.166 74.773,54.319 C74.671,54.443 74.561,54.565 74.444,54.671 C74.401,54.704 74.346,54.737 74.306,54.784 C74.268,54.835 74.239,54.894 74.214,54.945 C74.158,55.034 74.057,55.085 73.99,55.161 C73.909,55.235 73.88,55.33 73.814,55.418 C73.711,55.538 73.66,55.623 73.711,55.788 C73.741,55.894 73.81,55.934 73.909,55.887 C74.005,55.839 74.038,55.743 74.082,55.659 C74.129,55.572 74.18,55.498 74.254,55.439 C74.338,55.382 74.422,55.342 74.511,55.286 C74.576,55.253 74.616,55.176 74.656,55.114 C74.766,54.945 74.906,54.784 75.034,54.627 C75.104,54.542 75.176,54.43 75.286,54.382 C75.345,54.363 75.421,54.363 75.454,54.293 C75.484,54.228 75.454,54.107 75.558,54.099 C75.649,54.097 75.642,54.217 75.649,54.272 C75.667,54.348 75.689,54.371 75.762,54.371 C75.872,54.374 75.909,54.323 75.957,54.236 C75.989,54.154 76.056,54.048 76.132,54.012 C76.216,53.96 76.305,53.939 76.377,53.873 C76.495,53.759 76.607,53.664 76.706,53.55 C76.788,53.474 76.864,53.394 76.934,53.316 C77,53.24 77.052,53.136 77.139,53.1 C77.198,53.075 77.249,53.111 77.31,53.118 C77.373,53.126 77.367,53.103 77.388,53.052 C77.409,53.02 77.447,52.965 77.498,52.968 C77.607,52.972 77.601,53.126 77.601,53.206 C77.601,53.246 77.586,53.305 77.616,53.335 C77.644,53.375 77.711,53.367 77.755,53.36 C77.838,53.345 77.893,53.345 77.865,53.447 C77.85,53.503 77.802,53.558 77.761,53.598 C77.652,53.711 77.534,53.807 77.439,53.935 C77.392,53.983 77.344,54.038 77.3,54.089 C77.16,54.253 77.025,54.422 76.89,54.587 C76.773,54.722 76.655,54.865 76.539,54.996 C76.472,55.078 76.415,55.169 76.333,55.224 C76.227,55.304 76.202,55.389 76.136,55.498 C76.062,55.634 75.949,55.711 75.851,55.821 C75.799,55.887 75.805,55.967 75.792,56.037 C75.762,56.132 75.718,56.161 75.66,56.231 C75.52,56.389 75.406,56.56 75.366,56.754 C75.338,56.838 75.345,57.003 75.463,56.912 C75.532,56.853 75.55,56.765 75.623,56.718 C75.689,56.678 75.769,56.67 75.851,56.641 C75.957,56.604 76.052,56.539 76.099,56.436 C76.143,56.351 76.132,56.208 76.197,56.15 C76.246,56.106 76.355,56.11 76.425,56.087 C76.512,56.07 76.607,56.037 76.7,56.015 C76.78,56.003 76.883,55.997 76.956,55.952 C76.96,55.946 76.97,55.938 76.981,55.934 C76.993,55.916 77.008,55.904 77.014,55.887 C77.025,55.853 77.036,55.806 77.033,55.769 C77.025,55.726 76.989,55.711 77.025,55.674 C77.052,55.634 77.08,55.6 77.092,55.557 C77.103,55.487 77.052,55.435 77.004,55.403 C76.934,55.349 76.809,55.294 76.799,55.191 C76.795,55.136 76.839,55.099 76.861,55.048 C76.886,55.007 76.898,54.956 76.904,54.905 C76.904,54.872 76.898,54.835 76.904,54.802 C76.913,54.762 76.934,54.73 76.949,54.697 C76.97,54.663 77.014,54.608 77.052,54.591 C77.154,54.565 77.19,54.697 77.285,54.707 C77.358,54.719 77.421,54.73 77.498,54.73 C77.578,54.73 77.663,54.737 77.743,54.73 C77.802,54.719 77.878,54.707 77.908,54.656 C77.93,54.635 77.937,54.587 77.93,54.553 C77.922,54.481 77.835,54.433 77.827,54.374 C77.82,54.308 77.865,54.228 77.897,54.179 C77.937,54.114 78.004,54.089 78.08,54.114 C78.23,54.154 78.391,54.331 78.553,54.272 C78.619,54.249 78.637,54.173 78.608,54.107 C78.593,54.078 78.553,54.063 78.538,54.034 C78.509,54.012 78.501,53.983 78.483,53.957 C78.439,53.839 78.494,53.734 78.559,53.649 C78.625,53.569 78.713,53.466 78.819,53.437 C78.868,53.419 78.918,53.39 78.969,53.382 L79.003,53.382 C79.073,53.382 79.109,53.466 79.113,53.528 C79.123,53.598 79.102,53.668 79.064,53.73 C79.017,53.822 78.918,53.935 79.013,54.027 C79.102,54.107 79.215,54.107 79.322,54.089 C79.365,54.089 79.416,54.078 79.463,54.078 C79.505,54.078 79.556,54.07 79.592,54.082 C79.65,54.107 79.695,54.217 79.676,54.279 C79.65,54.378 79.566,54.451 79.52,54.542 C79.463,54.638 79.343,54.711 79.245,54.777 C79.182,54.806 79.109,54.821 79.043,54.835 C78.941,54.872 78.868,54.901 78.83,54.996 C78.794,55.099 78.845,55.136 78.941,55.154 C79.051,55.169 79.164,55.235 79.164,55.355 C79.164,55.572 78.984,55.686 78.815,55.777 C78.743,55.813 78.663,55.853 78.604,55.908 C78.568,55.934 78.545,55.967 78.523,56.003 C78.509,56.015 78.464,56.132 78.458,56.132 C78.376,56.153 78.319,56.048 78.256,56.011 C78.219,55.99 78.186,55.982 78.157,56.003 C78.131,56.015 78.124,56.033 78.106,56.058 C78.08,56.081 78.047,56.087 78.025,56.125 C78.017,56.153 78.017,56.193 78.017,56.231 C78.017,56.296 78.017,56.377 78.004,56.44 C77.985,56.48 77.945,56.553 77.956,56.601 C77.974,56.681 78.11,56.638 78.15,56.604 C78.205,56.571 78.219,56.505 78.267,56.472 C78.348,56.41 78.435,56.583 78.42,56.645 C78.406,56.706 78.348,56.731 78.329,56.78 C78.304,56.838 78.351,56.887 78.406,56.904 C78.501,56.93 78.728,56.809 78.72,56.706 L78.72,56.696 C78.707,56.619 78.608,56.512 78.732,56.48 C78.794,56.469 78.853,56.512 78.901,56.55 C78.937,56.575 78.984,56.634 79.043,56.634 C79.109,56.638 79.157,56.52 79.204,56.48 C79.273,56.402 79.365,56.341 79.45,56.289 C79.581,56.208 79.757,56.176 79.856,56.062 C79.969,55.934 80.061,55.743 80.098,55.572 C80.119,55.498 80.149,55.393 80.204,55.342 C80.339,55.209 80.559,55.275 80.683,55.136 C80.742,55.085 80.771,55.015 80.793,54.949 C80.816,54.886 80.845,54.835 80.877,54.784 C80.925,54.719 80.903,54.656 80.903,54.583 C80.911,54.513 80.947,54.433 80.998,54.392 C81.072,54.341 81.13,54.341 81.196,54.386 C81.302,54.47 81.466,54.348 81.563,54.422 C81.672,54.517 81.54,54.686 81.463,54.751 C81.207,54.939 81.262,55.281 81.027,55.465 C80.94,55.534 80.816,55.538 80.734,55.612 C80.628,55.733 80.662,55.942 80.566,56.048 C80.514,56.091 80.427,55.997 80.369,56.026 C80.324,56.048 80.318,56.113 80.314,56.153 C80.314,56.186 80.314,56.22 80.31,56.245 C80.288,56.296 80.149,56.392 80.229,56.454 C80.269,56.48 80.332,56.48 80.372,56.487 C80.442,56.491 80.457,56.472 80.501,56.425 C80.514,56.402 80.544,56.366 80.573,56.374 C80.611,56.377 80.636,56.425 80.662,56.44 C80.683,56.461 80.719,56.505 80.75,56.48 C80.771,56.469 80.776,56.41 80.786,56.392 C80.805,56.351 80.837,56.315 80.881,56.315 C80.925,56.33 80.903,56.341 80.925,56.362 C80.962,56.425 81.075,56.392 81.122,56.359 C81.16,56.334 81.204,56.296 81.232,56.256 C81.306,56.176 81.365,56.073 81.43,55.99 C81.5,55.904 81.573,55.813 81.679,55.777 C81.73,55.751 81.797,55.751 81.859,55.733 C81.935,55.699 81.994,55.648 82.046,55.589 C82.152,55.498 82.287,55.477 82.401,55.382 C82.456,55.33 82.576,55.235 82.587,55.37 C82.595,55.393 82.576,55.429 82.58,55.439 C82.587,55.477 82.61,55.487 82.61,55.524 C82.61,55.652 82.375,55.699 82.331,55.813 C82.317,55.868 82.335,55.916 82.331,55.96 C82.31,56.117 82.159,56.081 82.053,56.146 C81.924,56.231 81.822,56.389 81.753,56.524 C81.715,56.594 81.723,56.601 81.76,56.678 C81.782,56.706 81.848,56.758 81.822,56.801 C81.793,56.838 81.702,56.794 81.661,56.801 C81.533,56.828 81.588,56.952 81.563,57.033 C81.54,57.12 81.43,56.967 81.386,57.135 C81.365,57.219 81.379,57.318 81.342,57.398 C81.302,57.497 81.189,57.56 81.101,57.603 C81.075,57.615 81.046,57.622 81.023,57.637 C80.998,57.645 80.968,57.666 80.955,57.692 C80.932,57.721 80.94,57.78 80.925,57.82 C80.903,57.85 80.881,57.879 80.86,57.901 C80.816,57.941 80.75,57.996 80.727,58.054 C80.719,58.098 80.734,58.116 80.782,58.12 C80.808,58.128 80.837,58.109 80.86,58.09 C80.873,58.09 80.877,58.08 80.892,58.08 C80.911,58.069 80.925,58.065 80.94,58.061 C80.962,58.048 80.977,58.039 80.998,58.029 C81.035,58.007 81.075,57.989 81.116,57.962 C81.16,57.941 81.207,57.919 81.247,57.894 C81.423,57.761 81.58,57.615 81.73,57.455 C81.892,57.293 82.009,57.08 82.169,56.915 C82.236,56.845 82.327,56.746 82.418,56.721 C82.61,56.678 82.547,56.86 82.477,56.94 C82.437,56.985 82.437,57.037 82.401,57.077 C82.368,57.102 82.327,57.102 82.294,57.124 C82.251,57.157 82.207,57.231 82.178,57.278 C82.112,57.387 82.064,57.516 81.966,57.596 C81.899,57.651 81.815,57.673 81.757,57.753 C81.702,57.824 81.672,57.926 81.628,58.01 C81.599,58.084 81.573,58.164 81.687,58.175 C81.825,58.2 81.837,58.084 81.907,58.007 C81.972,57.919 82.122,57.915 82.214,57.86 C82.31,57.797 82.317,57.717 82.346,57.622 C82.361,57.578 82.445,57.438 82.492,57.442 C82.507,57.329 82.602,57.352 82.661,57.271 C82.697,57.231 82.672,57.216 82.73,57.198 C82.822,57.153 82.979,57.124 82.965,57.278 C82.954,57.366 82.859,57.449 82.807,57.516 C82.646,57.717 82.492,57.894 82.375,58.116 C82.251,58.325 82.294,58.563 82.159,58.772 C82.089,58.871 82.017,59.006 81.924,59.083 C81.837,59.156 81.723,59.197 81.643,59.281 C81.563,59.357 81.496,59.464 81.438,59.551 C81.339,59.703 81.204,59.775 81.054,59.882 C80.998,59.922 80.955,59.969 80.911,60.032 C80.852,60.108 80.75,60.178 80.683,60.258 C80.628,60.339 80.603,60.431 80.541,60.501 C80.453,60.6 80.365,60.625 80.362,60.775 C80.303,60.786 80.292,60.763 80.233,60.815 C80.204,60.833 80.17,60.859 80.149,60.889 C80.113,60.929 80.075,60.984 80.046,61.024 C80.024,61.046 79.944,61.122 79.951,61.149 C79.995,61.291 80.434,60.91 80.478,60.874 C80.618,60.738 80.75,60.588 80.892,60.457 C81.255,60.108 81.606,59.754 81.943,59.384 C82.236,59.068 82.528,58.732 82.8,58.399 C82.918,58.244 83.064,58.084 83.151,57.915 C83.225,57.797 83.25,57.596 83.378,57.523 C83.463,57.483 83.606,57.52 83.708,57.476 C84.119,57.304 84.356,56.721 84.628,56.402 C85.392,55.502 86.352,53.339 86.432,53.103 C86.494,52.927 86.557,52.503 86.956,52.408 C87.208,52.345 87.165,51.789 87.212,51.555 C87.289,51.233 87.322,50.878 87.524,50.625 C87.872,50.19 87.897,49.445 87.955,49.197 C88.073,48.684 89.025,45.356 88.79,42.679 C88.74,42.16 88.75,39.048 87.889,38.1 C87.34,37.488 87.948,36.733 87.611,35.762 C87.531,35.524 87.885,35.418 87.955,35.188 C88.189,34.413 87.714,33.771 87.311,33.691 C86.956,33.628 86.479,33.628 86.344,33.205 C86.285,33.031 86.593,32.302 86.19,31.546 C85.996,31.179 85.67,30.339 83.225,28.438 C82.405,27.794 81.797,26.921 81.065,26.185 C80.845,25.775 79.571,24.638 79.241,24.396 C79.013,24.241 78.644,23.476 77.586,23.099 C77.242,22.966 74.857,21.054 74.583,20.964 C73.572,20.635 71.833,19.382 71.515,19.303 C69.739,18.878 69.098,17.882 68.432,17.811 C67.927,17.771 66.505,17.685 65.759,16.848 C65.348,16.396 64.763,16.297 64.202,16.606 C63.841,16.809 62.712,15.801 61.101,16 C60.764,16.042 60.471,15.448 59.233,15.607 C58.047,15.764 57.274,14.987 56.85,14.835 C56.447,14.691 53.928,14.044 52.789,14.085 L52.086,14.085 C49.665,13.769 47.545,13.769 45.202,14.085 C44.653,14.228 37.629,16.038 36.978,16.412 C36.428,16.726 34.957,17.203 34.583,17.372 C33.818,17.731 30.838,18.7 30.746,19.031 C30.691,19.207 30.211,19.226 30.091,19.363 C30.017,19.451 29.281,20.239 28.307,20.597 C27.693,20.825 24.759,22.969 24.213,23.441 C23.822,23.783 22.068,25.039 21.764,25.222" id="Fill-17016" fill="#FFFFFF"></path>
                <path d="M89.153,33.848 C89.134,34.083 89.106,34.33 88.87,34.481 C88.857,34.499 88.798,34.484 88.775,34.484 C88.746,34.481 88.718,34.476 88.691,34.465 C88.585,34.433 88.497,34.351 88.431,34.265 C88.395,34.225 88.366,34.179 88.325,34.134 C88.285,34.083 88.237,34.041 88.205,33.979 C88.176,33.919 88.153,33.848 88.165,33.788 C88.169,33.733 88.186,33.678 88.205,33.628 C88.227,33.577 88.26,33.531 88.3,33.498 C88.336,33.47 88.399,33.425 88.454,33.425 C88.775,33.411 89.079,33.517 89.153,33.848" id="Fill-17018" fill="#FFFFFF"></path>
                <path d="M71.551,55.502 C71.559,55.513 71.559,55.528 71.559,55.546 C71.551,55.682 71.361,55.743 71.295,55.821 C71.222,55.909 71.178,56.11 71.027,56.026 C71.053,55.861 71.23,55.59 71.375,55.502 C71.448,55.462 71.54,55.422 71.551,55.502" id="Fill-17020" fill="#FFFFFF"></path>
                <path d="M72.269,55.854 C72.254,55.905 72.203,55.945 72.185,55.983 C72.104,56.074 72.024,56.175 71.946,56.274 C71.921,56.304 71.895,56.341 71.862,56.367 C71.686,56.583 71.5,56.787 71.298,56.975 C71.192,57.077 71.089,57.165 70.988,57.256 C70.929,57.296 70.753,57.487 70.676,57.399 C70.614,57.323 70.658,57.209 70.709,57.142 C70.753,57.087 70.808,57.04 70.844,56.981 C70.885,56.905 70.9,56.827 70.929,56.74 C70.943,56.645 70.988,56.538 71.076,56.491 C71.186,56.428 71.321,56.411 71.442,56.396 C71.566,56.377 71.628,56.289 71.691,56.183 C71.712,56.154 71.735,56.117 71.742,56.084 C71.764,56.03 71.775,56.004 71.822,55.968 C71.866,55.928 71.914,55.887 71.961,55.846 C72.035,55.788 72.144,55.653 72.246,55.708 C72.298,55.744 72.298,55.799 72.269,55.854" id="Fill-17022" fill="#FFFFFF"></path>
                <path d="M80.269,56.777 C80.292,56.817 80.303,56.88 80.295,56.923 C80.28,57.001 80.193,57.026 80.138,57.045 C80.06,57.081 79.984,57.115 79.9,57.14 C79.819,57.157 79.727,57.191 79.644,57.202 C79.606,57.217 79.372,57.261 79.486,57.326 C79.57,57.377 79.507,57.425 79.431,57.455 C79.365,57.476 79.243,57.503 79.189,57.451 C79.116,57.381 79.233,57.199 79.285,57.14 C79.35,57.073 79.431,57.018 79.515,56.967 C79.606,56.923 79.691,56.883 79.775,56.836 C79.862,56.777 79.936,56.701 80.028,56.661 C80.134,56.621 80.225,56.682 80.269,56.777" id="Fill-17024" fill="#FFFFFF"></path>
                <path d="M75.088,56.989 C75.088,56.993 75.084,57 75.084,57 C75.033,57.015 74.919,57.037 74.883,56.989 C74.817,56.898 74.985,56.835 75.044,56.835 C75.124,56.835 75.168,56.96 75.088,56.989" id="Fill-17026" fill="#FFFFFF"></path>
                <path d="M75.235,57.154 C75.264,57.194 75.176,57.209 75.151,57.22 C75.104,57.242 75.066,57.26 75.022,57.293 C74.935,57.344 74.861,57.403 74.796,57.487 C74.745,57.549 74.678,57.623 74.602,57.644 C74.598,57.652 74.598,57.652 74.591,57.652 C74.579,57.659 74.564,57.663 74.554,57.663 C74.459,57.684 74.361,57.674 74.393,57.549 C74.414,57.472 74.481,57.424 74.547,57.399 C74.608,57.377 74.686,57.363 74.745,57.319 C74.803,57.279 74.832,57.194 74.813,57.118 C74.847,57.095 74.883,57.114 74.92,57.135 C74.964,57.146 74.994,57.173 75.045,57.165 C75.089,57.156 75.125,57.154 75.165,57.146 C75.176,57.146 75.22,57.146 75.235,57.154" id="Fill-17028" fill="#FFFFFF"></path>
                <path d="M70.021,58.245 C69.783,58.524 69.369,58.813 69.113,58.593 C68.846,58.38 68.991,58.171 69.179,57.964 C69.479,57.685 70.112,57.411 70.241,57.538 C70.453,57.755 70.109,58.021 70.021,58.245" id="Fill-17030" fill="#FFFFFF"></path>
                <path d="M78.808,58.117 C78.749,58.11 78.743,57.963 78.749,57.927 L78.749,57.824 C78.743,57.788 78.72,57.744 78.743,57.703 C78.779,57.652 78.878,57.674 78.929,57.685 C78.984,57.693 79.002,57.71 78.992,57.78 C78.984,57.839 78.922,57.894 78.899,57.953 C78.874,58.001 78.886,58.081 78.838,58.11 C78.831,58.117 78.819,58.117 78.808,58.117" id="Fill-17032" fill="#FFFFFF"></path>
                <path d="M73.88,58.109 C73.81,58.12 73.741,57.9 73.804,57.787 C73.829,57.725 73.88,57.765 73.924,57.805 C73.968,57.86 73.968,57.93 73.958,58 C73.953,58.048 73.958,58.098 73.88,58.109" id="Fill-17034" fill="#FFFFFF"></path>
                <path d="M73.484,58.45 C73.517,58.406 73.539,58.359 73.564,58.311 C73.594,58.277 73.627,58.256 73.627,58.209 C73.627,58.127 73.55,58.083 73.473,58.116 C73.396,58.142 73.345,58.194 73.271,58.23 C73.155,58.304 73.022,58.336 72.887,58.359 C72.796,58.366 72.708,58.366 72.616,58.38 C72.568,58.391 72.477,58.402 72.444,58.443 C72.418,58.486 72.454,58.579 72.459,58.626 C72.503,58.79 72.733,58.772 72.87,58.768 C72.986,58.758 73.11,58.72 73.224,58.666 C73.323,58.604 73.418,58.534 73.484,58.45" id="Fill-17036" fill="#FFFFFF"></path>
                <path d="M80.511,58.458 C80.522,58.458 80.522,58.465 80.53,58.473 C80.551,58.498 80.5,58.542 80.478,58.553 C80.442,58.587 80.412,58.601 80.391,58.641 C80.361,58.689 80.332,58.707 80.281,58.711 C80.203,58.714 80.186,58.631 80.203,58.568 C80.23,58.487 80.317,58.458 80.391,58.458 C80.412,58.45 80.478,58.45 80.511,58.458" id="Fill-17038" fill="#FFFFFF"></path>
                <path d="M72.349,59.197 L72.305,59.197 C72.231,59.189 72.155,59.087 72.213,59.014 C72.261,58.956 72.433,58.911 72.459,59.007 C72.488,59.102 72.437,59.182 72.349,59.197" id="Fill-17040" fill="#FFFFFF"></path>
                <path d="M67.92,60.42 L67.92,60.431 C67.928,60.483 67.949,60.508 67.88,60.5 C67.811,60.5 67.717,60.387 67.695,60.332 C67.659,60.255 67.672,60.247 67.739,60.204 C67.811,60.152 67.88,60.076 67.964,60.032 C68.04,59.987 68.116,59.987 68.073,60.09 C68.044,60.152 67.985,60.204 67.946,60.259 C67.916,60.317 67.92,60.365 67.92,60.42" id="Fill-17042" fill="#FFFFFF"></path>
                <path d="M79.694,61.193 C79.789,61.208 79.73,61.504 79.584,61.501 C79.463,61.486 79.606,61.167 79.694,61.193" id="Fill-17044" fill="#FFFFFF"></path>
                <path d="M78.808,61.438 C78.911,61.653 78.743,61.892 78.574,62.016 C78.483,62.082 78.391,62.137 78.278,62.119 C78.171,62.1 78.084,62.031 78.054,61.935 C77.987,61.756 78.12,61.566 78.259,61.471 C78.339,61.416 78.435,61.372 78.534,61.36 C78.599,61.357 78.775,61.372 78.808,61.438" id="Fill-17046" fill="#FFFFFF"></path>
                <path d="M78.098,62.427 C78.106,62.46 78.054,62.485 78.025,62.515 C78.003,62.533 77.969,62.552 77.937,62.555 C77.885,62.577 77.775,62.595 77.731,62.545 C77.706,62.511 77.739,62.482 77.769,62.471 C77.809,62.456 77.838,62.42 77.878,62.401 C77.923,62.372 77.967,62.357 78.018,62.364 C78.039,62.372 78.083,62.401 78.098,62.427" id="Fill-17048" fill="#FFFFFF"></path>
                <path d="M57.055,26.847 C57.091,27.056 56.92,27.274 56.817,27.439 C56.766,27.519 56.732,27.629 56.667,27.696 C56.605,27.76 56.517,27.803 56.436,27.848 C56.297,27.923 56.158,27.958 56.027,27.848 C55.843,27.676 56.004,27.515 56.004,27.317 C55.923,27.05 56.004,26.794 56.136,26.563 C56.238,26.37 56.348,26.12 56.538,26.003 C56.648,25.939 56.722,25.809 56.869,25.896 C57.091,26.116 57,26.548 57.055,26.847" id="Fill-17050" fill="#FFFFFF"></path>
                <path d="M53.55,28.102 C53.626,28.297 53.67,28.521 53.806,28.69 C53.93,28.86 53.957,29.288 53.879,29.292 C53.664,29.31 53.711,29.466 53.616,29.466 C53.444,29.466 52.876,29.452 52.729,29.085 C52.678,28.953 52.661,28.844 52.671,28.684 C52.682,28.54 52.716,28.038 52.701,27.764 C52.682,27.518 53.023,27.498 53.191,27.638 C53.272,27.7 53.521,28.027 53.55,28.102" id="Fill-17052" fill="#FFFFFF"></path>
                <path d="M60.573,28.54 C60.499,28.778 60.064,28.88 60.236,29.166 C60.28,29.334 60.09,29.413 59.972,29.433 C59.65,29.533 59.309,29.872 58.973,29.686 C58.838,29.413 58.405,29.384 58.427,29.053 C58.593,28.758 58.925,28.815 59.123,28.583 C59.211,28.487 60.402,28.269 60.544,28.472 L60.573,28.54 Z" id="Fill-17054" fill="#FFFFFF"></path>
                <path d="M52.349,30.833 C52.353,30.953 52.335,31.107 52.239,31.212 C52.064,31.387 51.756,31.38 51.661,31.411 C51.437,31.477 51.112,31.421 51.013,31.398 C50.973,31.387 50.584,31.223 50.536,31.141 C50.496,31.071 50.422,30.735 50.449,30.659 C50.508,30.505 50.701,30.43 50.844,30.406 C51.049,30.369 51.279,30.338 51.456,30.438 C51.8,30.637 52.148,30.513 52.261,30.597 C52.298,30.62 52.345,30.785 52.349,30.833" id="Fill-17056" fill="#FFFFFF"></path>
                <path d="M57.12,30.921 C57.091,30.817 56.758,30.532 56.656,30.489 C56.472,30.398 56.253,30.429 56.055,30.374 C55.659,30.238 55.404,30.616 55.081,30.671 C54.942,30.698 54.864,30.85 54.752,30.923 C54.437,31.134 54.18,31.986 54.121,32.176 C53.967,32.639 54.444,32.943 54.623,32.954 C54.891,32.966 55.176,32.928 55.425,32.865 C55.828,32.725 56.164,32.45 56.443,32.132 C56.648,31.903 56.772,31.619 56.956,31.379 C57.213,31.044 57.128,30.941 57.12,30.921 M58.64,32.524 C58.427,33.053 57.515,34.289 55.989,34.586 C55.417,34.698 54.733,34.951 54.22,34.539 C54.191,34.518 53.95,34.289 53.712,34.192 C53.455,34.084 53.378,34.22 53.184,34.057 C53.148,34.031 53.038,33.753 53.063,33.571 C53.082,33.456 53,33.345 52.95,33.238 C52.892,33.113 52.715,32.871 52.745,32.654 C52.76,32.574 52.664,32.142 52.88,31.833 C52.95,31.743 53.177,31.28 52.943,31.242 C52.862,31.228 52.84,30.995 53.012,30.85 C53.236,30.663 53.359,29.846 54.18,29.609 C54.788,29.431 55.157,28.718 55.803,28.68 C56.107,28.622 56.413,28.677 56.7,28.794 C56.956,28.907 57.296,28.957 57.461,29.187 C57.572,29.345 58.055,29.579 58.222,29.891 C58.347,30.124 58.632,30.302 58.691,30.569 C58.728,30.697 58.845,31.184 58.845,31.315 C58.845,31.548 58.706,32.365 58.64,32.524" id="Fill-17058" fill="#FFFFFF"></path>
                <path d="M60.983,32.654 C61.108,32.689 61.247,32.757 61.224,32.912 C61.203,33.037 61.086,32.993 60.998,33.033 C60.848,33.108 60.895,33.398 60.683,33.373 C60.559,33.362 60.464,33.425 60.35,33.461 C60.097,33.456 59.753,33.48 59.526,33.35 C59.467,33.317 59.438,33.273 59.387,33.219 C59.335,33.177 59.145,33.147 59.164,32.92 C59.168,32.853 59.126,32.845 59.083,32.798 C58.976,32.682 59.068,32.529 59.218,32.505 C59.299,32.495 59.379,32.515 59.453,32.489 C59.679,32.385 59.928,32.446 60.17,32.478 C60.295,32.495 60.419,32.515 60.544,32.55 C60.646,32.579 60.947,32.645 60.983,32.654" id="Fill-17060" fill="#FFFFFF"></path>
                <path d="M52.174,34.204 C52.17,34.235 52.237,34.288 52.248,34.319 C52.332,34.453 52.196,34.603 52.083,34.681 C51.961,34.757 51.822,34.801 51.712,34.888 C51.654,34.931 51.368,35.061 51.277,35.081 C51.199,35.09 50.885,35.097 50.819,35.087 C50.665,35.056 50.526,34.92 50.511,34.762 C50.621,34.178 51.295,34.079 51.742,33.893 C51.988,33.836 52.203,33.956 52.174,34.204" id="Fill-17062" fill="#FFFFFF"></path>
                <path d="M57.919,35.146 C58.069,35.27 58.2,35.372 58.289,35.549 C58.377,35.718 58.409,35.893 58.453,36.076 C58.508,36.303 58.238,36.354 58.15,36.533 C58.128,36.581 58.099,36.635 58.04,36.647 C57.942,36.663 57.798,36.611 57.699,36.578 C57.59,36.547 57.484,36.552 57.406,36.442 C57.345,36.358 57.322,36.253 57.315,36.151 C57.3,36.056 57.315,35.869 57.242,35.767 C57.212,35.723 57.172,35.684 57.161,35.633 C57.153,35.574 57.176,35.53 57.161,35.481 C57.117,35.32 57.252,35.312 57.235,35.185 C57.22,35.11 57.256,35.047 57.315,35.027 C57.425,35.011 57.524,35.051 57.622,35.087 C57.681,35.111 57.86,35.097 57.919,35.146" id="Fill-17064" fill="#FFFFFF"></path>
                <path d="M54.956,35.715 C55.099,35.963 55.095,36.229 54.971,36.481 C54.89,36.681 54.751,36.861 54.623,37.037 C54.576,37.109 54.536,37.212 54.451,37.244 C54.234,37.319 54.092,37.152 54.041,37.105 C54.011,37.061 53.938,36.976 53.931,36.92 C53.898,36.347 54.348,35.511 54.576,35.497 C54.736,35.481 54.838,35.655 54.956,35.715" id="Fill-17066" fill="#FFFFFF"></path>
                <path d="M73.191,63.811 C73.037,63.895 73.191,64.246 73.111,64.385 C73.022,64.528 72.824,64.568 72.667,64.51 C72.517,64.459 72.558,64.345 72.627,64.218 C72.627,64.21 72.619,64.151 72.619,64.136 C72.627,64.104 72.649,64.081 72.664,64.06 C72.678,64.03 72.726,63.961 72.689,63.92 C72.671,63.895 72.642,63.887 72.627,63.862 C72.598,63.826 72.605,63.782 72.613,63.733 C72.619,63.701 72.602,63.642 72.634,63.617 C72.664,63.598 72.701,63.61 72.726,63.617 C72.796,63.628 72.853,63.668 72.92,63.701 C72.961,63.718 73.005,63.723 73.052,63.723 C73.088,63.723 73.125,63.718 73.155,63.705 C73.191,63.686 73.22,63.668 73.25,63.653 C73.316,63.628 73.404,63.638 73.425,63.718 C73.425,63.763 73.432,63.884 73.36,63.862 C73.33,63.851 73.309,63.822 73.282,63.8 C73.257,63.788 73.22,63.796 73.191,63.811" id="Fill-17068" fill="#FFFFFF"></path>
                <path d="M69.237,60.72 C69.157,60.724 69.123,60.819 69.036,60.779 C68.973,60.749 68.981,60.687 68.996,60.632 C69.017,60.585 69.003,60.509 69.024,60.464 C69.113,60.325 69.325,60.454 69.391,60.273 C69.42,60.203 69.515,59.904 69.632,60.057 C69.706,60.152 69.574,60.3 69.589,60.402 C69.589,60.479 69.6,60.497 69.537,60.566 C69.497,60.604 69.446,60.68 69.395,60.705 C69.34,60.724 69.288,60.709 69.237,60.72" id="Fill-17070" fill="#FFFFFF"></path>
                <path d="M72.92,55.18 C72.884,55.191 72.825,55.235 72.817,55.275 C72.777,55.363 72.884,55.345 72.943,55.319 C72.971,55.301 73.103,55.209 73.059,55.154 C73.03,55.102 72.949,55.169 72.92,55.18" id="Fill-17072" fill="#FFFFFF"></path>
                <path d="M76.772,56.198 C76.739,56.132 76.472,56.187 76.487,56.308 C76.494,56.367 76.85,56.341 76.772,56.198" id="Fill-17074" fill="#FFFFFF"></path>
                <path d="M77.227,54.927 C77.176,54.927 77.102,54.737 77.047,54.927 C77.026,54.993 76.963,55.07 77.014,55.121 C77.073,55.198 77.231,55.176 77.3,55.136 C77.366,55.088 77.44,54.997 77.352,54.938 C77.318,54.912 77.26,54.912 77.227,54.927" id="Fill-17076" fill="#FFFFFF"></path>
                <path d="M75.506,54.437 C75.422,54.401 75.286,54.566 75.235,54.613 C75.074,54.777 74.919,54.946 74.814,55.148 C74.759,55.254 74.664,55.294 74.575,55.371 C74.546,55.404 74.51,55.452 74.554,55.477 C74.609,55.503 74.733,55.44 74.78,55.423 C74.839,55.404 74.877,55.349 74.919,55.309 C74.964,55.275 75.012,55.261 75.067,55.224 C75.096,55.203 75.126,55.163 75.151,55.121 C75.187,55.081 75.221,55.045 75.265,55.009 C75.293,54.979 75.331,54.946 75.36,54.912 C75.415,54.836 75.47,54.767 75.532,54.697 C75.572,54.646 75.631,54.488 75.565,54.452 C75.535,54.433 75.521,54.452 75.506,54.437" id="Fill-17078" fill="#FFFFFF"></path>
                <path d="M78.508,54.364 C78.457,54.372 78.405,54.364 78.35,54.36 C78.164,54.316 78.17,54.254 78.135,54.482 C78.13,54.522 78.076,54.873 78.13,54.877 C78.233,54.881 78.35,54.698 78.405,54.628 C78.428,54.598 78.626,54.357 78.508,54.364" id="Fill-17080" fill="#FFFFFF"></path>
                <path d="M78.984,55.342 C79.087,55.357 78.918,55.54 78.838,55.587 C78.75,55.635 78.629,55.612 78.537,55.65 C78.494,55.667 78.406,55.701 78.359,55.675 C78.318,55.646 78.347,55.572 78.372,55.54 C78.406,55.488 78.45,55.462 78.509,55.441 C78.574,55.422 78.619,55.371 78.676,55.342 C78.771,55.287 78.878,55.313 78.984,55.342" id="Fill-17082" fill="#FFFFFF"></path>
                <path d="M73.514,55.946 C73.66,55.917 73.573,56.092 73.525,56.147 C73.499,56.176 73.364,56.33 73.345,56.334 C73.14,56.404 73.383,55.982 73.514,55.946" id="Fill-17084" fill="#FFFFFF"></path>
                <path d="M72.961,56.524 C72.873,56.44 72.727,56.71 72.613,56.802 C72.526,56.868 72.258,56.963 72.456,57.102 C72.628,57.223 72.76,57.003 72.818,56.901 C72.87,56.802 73.045,56.594 72.961,56.524" id="Fill-17086" fill="#FFFFFF"></path>
                <path d="M77.787,56.626 C77.776,56.671 77.732,56.692 77.717,56.732 C77.707,56.765 77.713,56.809 77.732,56.846 C77.754,56.846 77.776,56.905 77.802,56.915 C77.823,56.93 77.865,56.93 77.897,56.919 C77.945,56.901 78.003,56.86 77.981,56.795 C77.96,56.755 77.901,56.719 77.871,56.681 C77.856,56.671 77.802,56.578 77.787,56.626" id="Fill-17088" fill="#FFFFFF"></path>
                <path d="M77.838,57.165 C77.585,57.157 77.175,57.172 76.989,57.388 C76.831,57.579 76.996,57.806 77.197,57.861 C77.323,57.894 77.52,57.894 77.615,57.806 C77.703,57.737 77.71,57.579 77.794,57.502 C77.857,57.428 78.011,57.425 78.026,57.319 C78.054,57.201 77.937,57.172 77.838,57.165" id="Fill-17090" fill="#FFFFFF"></path>
                <path d="M81.394,58.307 C81.255,58.37 80.965,58.541 81.02,58.79 C81.13,58.82 81.573,58.223 81.394,58.307" id="Fill-17092" fill="#FFFFFF"></path>
                <path d="M77.065,58.007 C76.97,58.011 76.772,57.821 76.754,58.036 C76.729,58.245 77.025,58.102 77.131,58.08 C77.145,58.068 77.139,58.061 77.131,58.036 C77.116,58.007 77.094,58.007 77.065,58.007" id="Fill-17094" fill="#FFFFFF"></path>
                <path d="M66.014,60.782 C65.941,60.687 65.78,60.805 65.717,60.848 C65.67,60.888 65.634,60.911 65.575,60.913 C65.516,60.921 65.442,60.888 65.389,60.932 C65.29,61.016 65.406,61.042 65.476,61.046 C65.539,61.053 65.604,61.061 65.662,61.071 C65.816,61.097 65.934,61.105 65.999,60.943 C66.025,60.888 66.05,60.83 66.014,60.782" id="Fill-17096" fill="#FFFFFF"></path>
                <path d="M64.872,61.23 C64.843,61.175 64.821,61.241 64.807,61.259 C64.748,61.306 64.693,61.284 64.623,61.284 C64.572,61.284 64.528,61.303 64.507,61.35 C64.484,61.369 64.455,61.456 64.484,61.486 C64.513,61.515 64.602,61.471 64.631,61.456 C64.682,61.431 64.722,61.431 64.769,61.428 C64.898,61.416 64.931,61.339 64.872,61.23" id="Fill-17098" fill="#FFFFFF"></path>
                <path d="M69.819,60.614 C69.745,60.669 69.684,60.728 69.618,60.808 C69.581,60.838 69.544,60.882 69.574,60.925 C69.625,60.996 69.69,60.933 69.734,60.903 C69.793,60.863 69.859,60.874 69.91,60.838 C69.969,60.815 69.984,60.768 70.039,60.724 C70.112,60.654 70.273,60.585 70.292,60.464 C70.317,60.285 70.076,60.431 70.017,60.464 C69.939,60.511 69.874,60.56 69.819,60.614" id="Fill-17100" fill="#FFFFFF"></path>
                <path d="M69.947,61.577 C70.009,61.708 70.093,61.775 70.225,61.801 C70.306,61.822 70.561,61.87 70.561,61.727 C70.561,61.691 70.51,61.625 70.496,61.606 C70.46,61.544 70.452,61.533 70.371,61.548 C70.299,61.551 70.247,61.566 70.173,61.533 C70.09,61.503 69.961,61.321 69.928,61.368 C69.892,61.423 69.939,61.566 69.947,61.577" id="Fill-17102" fill="#FFFFFF"></path>
                <path d="M70.573,61.321 C70.58,61.38 70.613,61.427 70.687,61.479 C70.958,61.648 70.833,61.424 70.943,61.252 C70.98,61.186 71.09,61.11 71.068,61.032 C71.016,60.882 70.562,61.106 70.573,61.321" id="Fill-17104" fill="#FFFFFF"></path>
                <path d="M71.053,61.83 C71.101,61.794 71.148,61.764 71.192,61.731 C71.269,61.676 71.378,61.621 71.433,61.534 C71.441,61.526 71.503,61.332 71.433,61.357 C71.324,61.39 71.273,61.515 71.178,61.577 C71.097,61.625 70.709,61.811 70.715,61.91 C70.724,61.954 70.823,61.984 70.855,61.98 C70.935,61.969 70.899,61.946 70.95,61.896 C70.987,61.878 71.017,61.849 71.053,61.83" id="Fill-17106" fill="#FFFFFF"></path>
                <path d="M71.211,61.969 C71.167,61.969 71.127,62.005 71.09,62.027 C71.038,62.042 70.987,62.057 70.936,62.082 C70.918,62.108 70.867,62.129 70.859,62.163 C70.856,62.214 70.907,62.25 70.936,62.283 C70.987,62.338 71.031,62.357 71.097,62.357 C71.156,62.357 71.185,62.277 71.156,62.232 C71.148,62.214 71.116,62.195 71.127,62.17 C71.141,62.144 71.171,62.125 71.2,62.108 C71.222,62.074 71.251,62.042 71.247,62.005 C71.244,61.983 71.236,61.969 71.211,61.969" id="Fill-17108" fill="#FFFFFF"></path>
                <path d="M70.844,62.379 C70.815,62.375 70.789,62.387 70.764,62.402 C70.734,62.412 70.701,62.419 70.673,62.442 C70.635,62.47 70.551,62.525 70.603,62.58 C70.643,62.605 70.686,62.605 70.73,62.605 C70.76,62.605 70.789,62.605 70.815,62.594 C70.844,62.58 70.855,62.554 70.867,62.533 C70.884,62.508 70.892,62.474 70.892,62.438 C70.892,62.419 70.859,62.387 70.844,62.379" id="Fill-17110" fill="#FFFFFF"></path>
                <path d="M74.019,63.844 C73.945,63.877 73.898,63.884 73.869,63.964 C73.843,64.03 73.814,64.11 73.909,64.093 C74.038,64.082 74.202,63.975 74.338,63.92 C74.348,63.92 74.635,63.73 74.579,63.719 C74.399,63.686 74.19,63.766 74.038,63.84 C74.027,63.84 74.027,63.84 74.019,63.844" id="Fill-17112" fill="#FFFFFF"></path>
                <path d="M70.328,63.65 C70.284,63.724 70.108,63.861 70.108,63.961 C70.094,64.119 70.295,64.104 70.423,64.125 C70.745,64.173 71.192,64.214 71.426,63.946 C71.514,63.844 71.591,63.595 71.508,63.464 C71.398,63.28 71.273,63.441 71.122,63.46 C70.797,63.504 70.556,63.298 70.328,63.65" id="Fill-17114" fill="#FFFFFF"></path>
                <path d="M75.769,63.141 C75.733,63.167 75.725,63.185 75.746,63.217 C75.777,63.276 75.817,63.287 75.879,63.305 C75.995,63.339 76.117,63.386 76.208,63.463 C76.259,63.506 76.303,63.595 76.373,63.61 C76.468,63.628 76.523,63.558 76.538,63.481 C76.545,63.43 76.545,63.386 76.567,63.339 C76.578,63.291 76.611,63.265 76.601,63.217 C76.567,63.115 76.413,63.063 76.314,63.057 C76.238,63.05 76.151,63.057 76.08,63.078 C76.033,63.101 75.995,63.115 75.948,63.122 C75.889,63.126 75.813,63.105 75.769,63.141" id="Fill-17116" fill="#FFFFFF"></path>
            </g>
        </g>
    </g>
</svg>